Testbenches/Updated project/V0 - Original (Provided to us)/test.vcd
$date
	Sun Jun 09 15:13:41 2024
$end
$version
	Icarus Verilog
$end
$timescale
	1ps
$end
$scope module pixgen_tb $end
$var wire 4 ! keep [3:0] $end
$var wire 1 " writeReady $end
$var wire 1 # writeAddReady $end
$var wire 1 $ valid $end
$var wire 1 % user $end
$var wire 1 & respValid $end
$var wire 2 ' respData [1:0] $end
$var wire 1 ( readValid $end
$var wire 2 ) readResp [1:0] $end
$var wire 32 * readData [31:0] $end
$var wire 1 + readAddReady $end
$var wire 1 , last $end
$var wire 32 - dataOut [31:0] $end
$var parameter 32 . REG_COUNT $end
$var reg 1 / clk $end
$var reg 8 0 readAdd [7:0] $end
$var reg 1 1 readAddValid $end
$var reg 1 2 readReady $end
$var reg 1 3 respReady $end
$var reg 1 4 rst $end
$var reg 8 5 writeAdd [7:0] $end
$var reg 1 6 writeAddValid $end
$var reg 32 7 writeData [31:0] $end
$var reg 1 8 writeValid $end
$var integer 32 9 i [31:0] $end
$scope module p1 $end
$var wire 1 4 axi_resetn $end
$var wire 1 : first $end
$var wire 1 / out_stream_aclk $end
$var wire 4 ; out_stream_tkeep [3:0] $end
$var wire 1 < out_stream_tready $end
$var wire 1 4 periph_resetn $end
$var wire 1 / s_axi_lite_aclk $end
$var wire 8 = s_axi_lite_araddr [7:0] $end
$var wire 1 1 s_axi_lite_arvalid $end
$var wire 8 > s_axi_lite_awaddr [7:0] $end
$var wire 1 # s_axi_lite_awready $end
$var wire 1 6 s_axi_lite_awvalid $end
$var wire 1 3 s_axi_lite_bready $end
$var wire 32 ? s_axi_lite_rdata [31:0] $end
$var wire 1 2 s_axi_lite_rready $end
$var wire 32 @ s_axi_lite_wdata [31:0] $end
$var wire 1 " s_axi_lite_wready $end
$var wire 1 8 s_axi_lite_wvalid $end
$var wire 1 A valid_int $end
$var wire 1 ( s_axi_lite_rvalid $end
$var wire 2 B s_axi_lite_rresp [1:0] $end
$var wire 1 & s_axi_lite_bvalid $end
$var wire 2 C s_axi_lite_bresp [1:0] $end
$var wire 1 + s_axi_lite_arready $end
$var wire 1 D ready $end
$var wire 8 E r [7:0] $end
$var wire 1 $ out_stream_tvalid $end
$var wire 1 % out_stream_tuser $end
$var wire 1 , out_stream_tlast $end
$var wire 32 F out_stream_tdata [31:0] $end
$var wire 1 G lasty $end
$var wire 1 H lastx $end
$var wire 8 I g [7:0] $end
$var wire 8 J frame [7:0] $end
$var wire 8 K b [7:0] $end
$var parameter 2 L AWAIT_FETCH $end
$var parameter 2 M AWAIT_RADD $end
$var parameter 2 N AWAIT_READ $end
$var parameter 3 O AWAIT_RESP $end
$var parameter 3 P AWAIT_WADD $end
$var parameter 3 Q AWAIT_WADD_AND_DATA $end
$var parameter 3 R AWAIT_WDATA $end
$var parameter 3 S AWAIT_WRITE $end
$var parameter 2 T AXI_ERR $end
$var parameter 32 U AXI_LITE_ADDR_WIDTH $end
$var parameter 2 V AXI_OK $end
$var parameter 32 W REG_FILE_AWIDTH $end
$var parameter 32 X REG_FILE_SIZE $end
$var parameter 32 Y X_SIZE $end
$var parameter 32 Z Y_SIZE $end
$var reg 3 [ readAddr [2:0] $end
$var reg 32 \ readData [31:0] $end
$var reg 2 ] readState [1:0] $end
$var reg 3 ^ writeAddr [2:0] $end
$var reg 32 _ writeData [31:0] $end
$var reg 3 ` writeState [2:0] $end
$var reg 10 a x [9:0] $end
$var reg 9 b y [8:0] $end
$scope module pixel_packer $end
$var wire 1 / aclk $end
$var wire 1 4 aresetn $end
$var wire 8 c b [7:0] $end
$var wire 1 H eol $end
$var wire 8 d g [7:0] $end
$var wire 1 D in_stream_ready $end
$var wire 32 e out_stream_tdata [31:0] $end
$var wire 4 f out_stream_tkeep [3:0] $end
$var wire 1 , out_stream_tlast $end
$var wire 1 < out_stream_tready $end
$var wire 1 % out_stream_tuser $end
$var wire 1 $ out_stream_tvalid $end
$var wire 8 g r [7:0] $end
$var wire 1 : sof $end
$var wire 1 A valid $end
$var wire 1 h state0 $end
$var wire 2 i state [1:0] $end
$var reg 8 j last_b [7:0] $end
$var reg 8 k last_g [7:0] $end
$var reg 8 l last_r [7:0] $end
$var reg 1 m ready $end
$var reg 1 n sof_reg $end
$var reg 2 o state_reg [1:0] $end
$var reg 32 p tdata [31:0] $end
$var reg 1 q tvalid $end
$upscope $end
$upscope $end
$upscope $end
$enddefinitions $end
$comment Show the parameter values. $end
$dumpall
b111100000 Z
b1010000000 Y
b1000 X
b11 W
b0 V
b1000 U
b10 T
b100 S
b1 R
b0 Q
b10 P
b101 O
b10 N
b0 M
b1 L
b1000 .
$end
#0
$dumpvars
0q
bx p
b0 o
xn
1m
bx l
bx k
bx j
b0 i
1h
bx g
b1111 f
bx e
bx d
bx c
bx b
bx a
b0 `
bx _
bx ^
b0 ]
bx \
bx [
bx K
bx J
bx I
xH
xG
bx F
bx E
1D
bx0 C
bx0 B
1A
b0 @
bx ?
b0 >
b0 =
1<
b1111 ;
x:
b0 9
08
b0 7
06
b0 5
04
03
02
01
b0 0
0/
bx -
x,
1+
bx *
bx0 )
0(
bx0 '
0&
x%
0$
1#
1"
b1111 !
$end
#5000
1:
0%
0n
0G
b0 b
0,
0H
b0 a
1/
#10000
0/
#15000
1/
#16000
14
#20000
0/
#25000
1$
1q
0h
b1 i
0:
1%
1n
b1 o
b1 a
1/
#30000
0/
#35000
b10 i
b10 a
0%
0n
b10 o
1/
#40000
0/
#45000
b11 i
b11 o
b11 a
1/
#50000
0/
#55000
0$
0q
1h
b0 i
b100 a
b0 o
1/
#60000
0/
#65000
1$
1q
0h
b1 i
b1 o
b101 a
1/
#70000
0/
#75000
b10 i
b110 a
b10 o
1/
#76000
16
#80000
0/
#85000
b11 i
0#
b0 '
b0 C
b11 o
b1 `
b0 ^
b111 a
1/
#86000
06
#90000
0/
#95000
0$
0q
1h
b0 i
b1000 a
b0 o
1/
#100000
0/
#105000
1$
1q
0h
b1 i
b1 o
b1001 a
1/
#106000
18
#110000
0/
#115000
0"
b10 i
b1010 a
b100 `
b0 _
b10 o
1/
#116000
08
#120000
0/
#125000
b10110000101100000000xxxxxxxx -
b10110000101100000000xxxxxxxx F
b10110000101100000000xxxxxxxx e
b10110000101100000000xxxxxxxx p
b11 i
b1011 E
b1011 g
b0 I
b0 d
b1011 K
b1011 c
b0 J
b11 o
1&
b101 `
b1011 a
1/
#130000
0/
#135000
b1100 E
b1100 g
b1100 K
b1100 c
0$
0q
b10110000101100000000 -
b10110000101100000000 F
b10110000101100000000 e
b10110000101100000000 p
1h
b0 i
b1100 a
b1011 j
b0 k
b1011 l
b0 o
1/
#136000
13
#140000
0/
#145000
1$
1q
b11000000110000000000 -
b11000000110000000000 F
b11000000110000000000 e
b11000000110000000000 p
0h
b1 i
1#
1"
b1101 E
b1101 g
b1101 K
b1101 c
b1100 j
b1100 l
b1 o
0&
b0 `
b1101 a
1/
#146000
b1 9
03
#150000
0/
#155000
b1110 E
b1110 g
b1110 K
b1110 c
b1110000000000000110100001101 -
b1110000000000000110100001101 F
b1110000000000000110100001101 e
b1110000000000000110100001101 p
b10 i
b1110 a
b1101 j
b1101 l
b10 o
1/
#160000
0/
#165000
b1111000011110000000000001110 -
b1111000011110000000000001110 F
b1111000011110000000000001110 e
b1111000011110000000000001110 p
b11 i
b1111 E
b1111 g
b1111 K
b1111 c
b1110 j
b1110 l
b11 o
b1111 a
1/
#170000
0/
#175000
b10000 E
b10000 g
b10000 K
b10000 c
0$
0q
b11110000111100000000 -
b11110000111100000000 F
b11110000111100000000 e
b11110000111100000000 p
1h
b0 i
b10000 a
b1111 j
b1111 l
b0 o
1/
#180000
0/
#185000
1$
1q
b100000001000000000000 -
b100000001000000000000 F
b100000001000000000000 e
b100000001000000000000 p
0h
b1 i
b10001 E
b10001 g
b10001 K
b10001 c
b10000 j
b10000 l
b1 o
b10001 a
1/
#186000
b10001000100010001000100010001 7
b10001000100010001000100010001 @
b100 5
b100 >
#190000
0/
#195000
b10010 E
b10010 g
b10010 K
b10010 c
b10010000000000001000100010001 -
b10010000000000001000100010001 F
b10010000000000001000100010001 e
b10010000000000001000100010001 p
b10 i
b10010 a
b10001 j
b10001 l
b10 o
1/
#200000
0/
#205000
b10011000100110000000000010010 -
b10011000100110000000000010010 F
b10011000100110000000000010010 e
b10011000100110000000000010010 p
b11 i
b10011 E
b10011 g
b10011 K
b10011 c
b10010 j
b10010 l
b11 o
b10011 a
1/
#206000
16
#210000
0/
#215000
b10100 E
b10100 g
b10100 K
b10100 c
0#
0$
0q
b100110001001100000000 -
b100110001001100000000 F
b100110001001100000000 e
b100110001001100000000 p
1h
b0 i
b10100 a
b1 `
b1 ^
b10011 j
b10011 l
b0 o
1/
#216000
06
#220000
0/
#225000
1$
1q
b101000001010000000000 -
b101000001010000000000 F
b101000001010000000000 e
b101000001010000000000 p
0h
b1 i
b10101 E
b10101 g
b10101 K
b10101 c
b10100 j
b10100 l
b1 o
b10101 a
1/
#230000
0/
#235000
b10110 E
b10110 g
b10110 K
b10110 c
b10110000000000001010100010101 -
b10110000000000001010100010101 F
b10110000000000001010100010101 e
b10110000000000001010100010101 p
b10 i
b10110 a
b10101 j
b10101 l
b10 o
1/
#236000
18
#240000
0/
#245000
b10111000101110000000000010110 -
b10111000101110000000000010110 F
b10111000101110000000000010110 e
b10111000101110000000000010110 p
b11 i
0"
b10111 E
b10111 g
b10111 K
b10111 c
b10110 j
b10110 l
b11 o
b100 `
b10001000100010001000100010001 _
b10111 a
1/
#246000
08
#250000
0/
#255000
b11000 E
b11000 g
b11000 K
b11000 c
0$
0q
b101110001011100000000 -
b101110001011100000000 F
b101110001011100000000 e
b101110001011100000000 p
1h
b0 i
b11000 a
1&
b101 `
b10111 j
b10111 l
b0 o
1/
#260000
0/
#265000
1$
1q
b110000001100000000000 -
b110000001100000000000 F
b110000001100000000000 e
b110000001100000000000 p
0h
b1 i
b11001 E
b11001 g
b11001 K
b11001 c
b11000 j
b11000 l
b1 o
b11001 a
1/
#266000
13
#270000
0/
#275000
b11010 E
b11010 g
b11010 K
b11010 c
1#
1"
b11010000000000001100100011001 -
b11010000000000001100100011001 F
b11010000000000001100100011001 e
b11010000000000001100100011001 p
b10 i
b11010 a
0&
b0 `
b11001 j
b11001 l
b10 o
1/
#276000
b10 9
03
#280000
0/
#285000
b11011000110110000000000011010 -
b11011000110110000000000011010 F
b11011000110110000000000011010 e
b11011000110110000000000011010 p
b11 i
b11011 E
b11011 g
b11011 K
b11011 c
b11010 j
b11010 l
b11 o
b11011 a
1/
#290000
0/
#295000
b11100 E
b11100 g
b11100 K
b11100 c
0$
0q
b110110001101100000000 -
b110110001101100000000 F
b110110001101100000000 e
b110110001101100000000 p
1h
b0 i
b11100 a
b11011 j
b11011 l
b0 o
1/
#300000
0/
#305000
1$
1q
b111000001110000000000 -
b111000001110000000000 F
b111000001110000000000 e
b111000001110000000000 p
0h
b1 i
b11101 E
b11101 g
b11101 K
b11101 c
b11100 j
b11100 l
b1 o
b11101 a
1/
#310000
0/
#315000
b11110 E
b11110 g
b11110 K
b11110 c
b11110000000000001110100011101 -
b11110000000000001110100011101 F
b11110000000000001110100011101 e
b11110000000000001110100011101 p
b10 i
b11110 a
b11101 j
b11101 l
b10 o
1/
#316000
b100010001000100010001000100010 7
b100010001000100010001000100010 @
b1000 5
b1000 >
#320000
0/
#325000
b11111000111110000000000011110 -
b11111000111110000000000011110 F
b11111000111110000000000011110 e
b11111000111110000000000011110 p
b11 i
b11111 E
b11111 g
b11111 K
b11111 c
b11110 j
b11110 l
b11 o
b11111 a
1/
#330000
0/
#335000
b100000 E
b100000 g
b100000 K
b100000 c
0$
0q
b111110001111100000000 -
b111110001111100000000 F
b111110001111100000000 e
b111110001111100000000 p
1h
b0 i
b100000 a
b11111 j
b11111 l
b0 o
1/
#336000
16
#340000
0/
#345000
1$
1q
b1000000010000000000000 -
b1000000010000000000000 F
b1000000010000000000000 e
b1000000010000000000000 p
0h
b1 i
0#
b100001 E
b100001 g
b100001 K
b100001 c
b100000 j
b100000 l
b1 o
b1 `
b10 ^
b100001 a
1/
#346000
06
#350000
0/
#355000
b100010 E
b100010 g
b100010 K
b100010 c
b100010000000000010000100100001 -
b100010000000000010000100100001 F
b100010000000000010000100100001 e
b100010000000000010000100100001 p
b10 i
b100010 a
b100001 j
b100001 l
b10 o
1/
#360000
0/
#365000
b100011001000110000000000100010 -
b100011001000110000000000100010 F
b100011001000110000000000100010 e
b100011001000110000000000100010 p
b11 i
b100011 E
b100011 g
b100011 K
b100011 c
b100010 j
b100010 l
b11 o
b100011 a
1/
#366000
18
#370000
0/
#375000
b100100 E
b100100 g
b100100 K
b100100 c
0"
0$
0q
b1000110010001100000000 -
b1000110010001100000000 F
b1000110010001100000000 e
b1000110010001100000000 p
1h
b0 i
b100100 a
b100 `
b100010001000100010001000100010 _
b100011 j
b100011 l
b0 o
1/
#376000
08
#380000
0/
#385000
1$
1q
b1001000010010000000000 -
b1001000010010000000000 F
b1001000010010000000000 e
b1001000010010000000000 p
0h
b1 i
b100101 E
b100101 g
b100101 K
b100101 c
b100100 j
b100100 l
b1 o
1&
b101 `
b100101 a
1/
#390000
0/
#395000
b100110 E
b100110 g
b100110 K
b100110 c
b100110000000000010010100100101 -
b100110000000000010010100100101 F
b100110000000000010010100100101 e
b100110000000000010010100100101 p
b10 i
b100110 a
b100101 j
b100101 l
b10 o
1/
#396000
13
#400000
0/
#405000
b100111001001110000000000100110 -
b100111001001110000000000100110 F
b100111001001110000000000100110 e
b100111001001110000000000100110 p
b11 i
1#
1"
b100111 E
b100111 g
b100111 K
b100111 c
b100110 j
b100110 l
b11 o
0&
b0 `
b100111 a
1/
#406000
b11 9
03
#410000
0/
#415000
b101000 E
b101000 g
b101000 K
b101000 c
0$
0q
b1001110010011100000000 -
b1001110010011100000000 F
b1001110010011100000000 e
b1001110010011100000000 p
1h
b0 i
b101000 a
b100111 j
b100111 l
b0 o
1/
#420000
0/
#425000
1$
1q
b1010000010100000000000 -
b1010000010100000000000 F
b1010000010100000000000 e
b1010000010100000000000 p
0h
b1 i
b101001 E
b101001 g
b101001 K
b101001 c
b101000 j
b101000 l
b1 o
b101001 a
1/
#430000
0/
#435000
b101010 E
b101010 g
b101010 K
b101010 c
b101010000000000010100100101001 -
b101010000000000010100100101001 F
b101010000000000010100100101001 e
b101010000000000010100100101001 p
b10 i
b101010 a
b101001 j
b101001 l
b10 o
1/
#440000
0/
#445000
b101011001010110000000000101010 -
b101011001010110000000000101010 F
b101011001010110000000000101010 e
b101011001010110000000000101010 p
b11 i
b101011 E
b101011 g
b101011 K
b101011 c
b101010 j
b101010 l
b11 o
b101011 a
1/
#446000
b110011001100110011001100110011 7
b110011001100110011001100110011 @
b1100 5
b1100 >
#450000
0/
#455000
b101100 E
b101100 g
b101100 K
b101100 c
0$
0q
b1010110010101100000000 -
b1010110010101100000000 F
b1010110010101100000000 e
b1010110010101100000000 p
1h
b0 i
b101100 a
b101011 j
b101011 l
b0 o
1/
#460000
0/
#465000
1$
1q
b1011000010110000000000 -
b1011000010110000000000 F
b1011000010110000000000 e
b1011000010110000000000 p
0h
b1 i
b101101 E
b101101 g
b101101 K
b101101 c
b101100 j
b101100 l
b1 o
b101101 a
1/
#466000
16
#470000
0/
#475000
b101110 E
b101110 g
b101110 K
b101110 c
0#
b101110000000000010110100101101 -
b101110000000000010110100101101 F
b101110000000000010110100101101 e
b101110000000000010110100101101 p
b10 i
b101110 a
b1 `
b11 ^
b101101 j
b101101 l
b10 o
1/
#476000
06
#480000
0/
#485000
b101111001011110000000000101110 -
b101111001011110000000000101110 F
b101111001011110000000000101110 e
b101111001011110000000000101110 p
b11 i
b101111 E
b101111 g
b101111 K
b101111 c
b101110 j
b101110 l
b11 o
b101111 a
1/
#490000
0/
#495000
b110000 E
b110000 g
b110000 K
b110000 c
0$
0q
b1011110010111100000000 -
b1011110010111100000000 F
b1011110010111100000000 e
b1011110010111100000000 p
1h
b0 i
b110000 a
b101111 j
b101111 l
b0 o
1/
#496000
18
#500000
0/
#505000
1$
1q
b1100000011000000000000 -
b1100000011000000000000 F
b1100000011000000000000 e
b1100000011000000000000 p
0h
b1 i
0"
b110001 E
b110001 g
b110001 K
b110001 c
b110000 j
b110000 l
b1 o
b100 `
b110011001100110011001100110011 _
b110001 a
1/
#506000
08
#510000
0/
#515000
b110010 E
b110010 g
b110010 K
b110010 c
b110010000000000011000100110001 -
b110010000000000011000100110001 F
b110010000000000011000100110001 e
b110010000000000011000100110001 p
b10 i
b110010 a
1&
b101 `
b110001 j
b110001 l
b10 o
1/
#520000
0/
#525000
b110011001100110000000000110010 -
b110011001100110000000000110010 F
b110011001100110000000000110010 e
b110011001100110000000000110010 p
b11 i
b110011 E
b110011 g
b110011 K
b110011 c
b110010 j
b110010 l
b11 o
b110011 a
1/
#526000
13
#530000
0/
#535000
b110100 E
b110100 g
b110100 K
b110100 c
1#
1"
0$
0q
b1100110011001100000000 -
b1100110011001100000000 F
b1100110011001100000000 e
b1100110011001100000000 p
1h
b0 i
b110100 a
0&
b0 `
b110011 j
b110011 l
b0 o
1/
#536000
b100 9
03
#540000
0/
#545000
1$
1q
b1101000011010000000000 -
b1101000011010000000000 F
b1101000011010000000000 e
b1101000011010000000000 p
0h
b1 i
b110101 E
b110101 g
b110101 K
b110101 c
b110100 j
b110100 l
b1 o
b110101 a
1/
#550000
0/
#555000
b110110 E
b110110 g
b110110 K
b110110 c
b110110000000000011010100110101 -
b110110000000000011010100110101 F
b110110000000000011010100110101 e
b110110000000000011010100110101 p
b10 i
b110110 a
b110101 j
b110101 l
b10 o
1/
#560000
0/
#565000
b110111001101110000000000110110 -
b110111001101110000000000110110 F
b110111001101110000000000110110 e
b110111001101110000000000110110 p
b11 i
b110111 E
b110111 g
b110111 K
b110111 c
b110110 j
b110110 l
b11 o
b110111 a
1/
#570000
0/
#575000
b111000 E
b111000 g
b111000 K
b111000 c
0$
0q
b1101110011011100000000 -
b1101110011011100000000 F
b1101110011011100000000 e
b1101110011011100000000 p
1h
b0 i
b111000 a
b110111 j
b110111 l
b0 o
1/
#576000
b1000100010001000100010001000100 7
b1000100010001000100010001000100 @
b10000 5
b10000 >
#580000
0/
#585000
1$
1q
b1110000011100000000000 -
b1110000011100000000000 F
b1110000011100000000000 e
b1110000011100000000000 p
0h
b1 i
b111001 E
b111001 g
b111001 K
b111001 c
b111000 j
b111000 l
b1 o
b111001 a
1/
#590000
0/
#595000
b111010 E
b111010 g
b111010 K
b111010 c
b111010000000000011100100111001 -
b111010000000000011100100111001 F
b111010000000000011100100111001 e
b111010000000000011100100111001 p
b10 i
b111010 a
b111001 j
b111001 l
b10 o
1/
#596000
16
#600000
0/
#605000
b111011001110110000000000111010 -
b111011001110110000000000111010 F
b111011001110110000000000111010 e
b111011001110110000000000111010 p
b11 i
0#
b111011 E
b111011 g
b111011 K
b111011 c
b111010 j
b111010 l
b11 o
b1 `
b100 ^
b111011 a
1/
#606000
06
#610000
0/
#615000
b111100 E
b111100 g
b111100 K
b111100 c
0$
0q
b1110110011101100000000 -
b1110110011101100000000 F
b1110110011101100000000 e
b1110110011101100000000 p
1h
b0 i
b111100 a
b111011 j
b111011 l
b0 o
1/
#620000
0/
#625000
1$
1q
b1111000011110000000000 -
b1111000011110000000000 F
b1111000011110000000000 e
b1111000011110000000000 p
0h
b1 i
b111101 E
b111101 g
b111101 K
b111101 c
b111100 j
b111100 l
b1 o
b111101 a
1/
#626000
18
#630000
0/
#635000
b111110 E
b111110 g
b111110 K
b111110 c
0"
b111110000000000011110100111101 -
b111110000000000011110100111101 F
b111110000000000011110100111101 e
b111110000000000011110100111101 p
b10 i
b111110 a
b100 `
b1000100010001000100010001000100 _
b111101 j
b111101 l
b10 o
1/
#636000
08
#640000
0/
#645000
b111111001111110000000000111110 -
b111111001111110000000000111110 F
b111111001111110000000000111110 e
b111111001111110000000000111110 p
b11 i
b111111 E
b111111 g
b111111 K
b111111 c
b111110 j
b111110 l
b11 o
1&
b101 `
b111111 a
1/
#650000
0/
#655000
b1000000 E
b1000000 g
b1000000 K
b1000000 c
0$
0q
b1111110011111100000000 -
b1111110011111100000000 F
b1111110011111100000000 e
b1111110011111100000000 p
1h
b0 i
b1000000 a
b111111 j
b111111 l
b0 o
1/
#656000
13
#660000
0/
#665000
1$
1q
b10000000100000000000000 -
b10000000100000000000000 F
b10000000100000000000000 e
b10000000100000000000000 p
0h
b1 i
1#
1"
b1000001 E
b1000001 g
b1000001 K
b1000001 c
b1000000 j
b1000000 l
b1 o
0&
b0 `
b1000001 a
1/
#666000
b101 9
03
#670000
0/
#675000
b1000010 E
b1000010 g
b1000010 K
b1000010 c
b1000010000000000100000101000001 -
b1000010000000000100000101000001 F
b1000010000000000100000101000001 e
b1000010000000000100000101000001 p
b10 i
b1000010 a
b1000001 j
b1000001 l
b10 o
1/
#680000
0/
#685000
b1000011010000110000000001000010 -
b1000011010000110000000001000010 F
b1000011010000110000000001000010 e
b1000011010000110000000001000010 p
b11 i
b1000011 E
b1000011 g
b1000011 K
b1000011 c
b1000010 j
b1000010 l
b11 o
b1000011 a
1/
#690000
0/
#695000
b1000100 E
b1000100 g
b1000100 K
b1000100 c
0$
0q
b10000110100001100000000 -
b10000110100001100000000 F
b10000110100001100000000 e
b10000110100001100000000 p
1h
b0 i
b1000100 a
b1000011 j
b1000011 l
b0 o
1/
#700000
0/
#705000
1$
1q
b10001000100010000000000 -
b10001000100010000000000 F
b10001000100010000000000 e
b10001000100010000000000 p
0h
b1 i
b1000101 E
b1000101 g
b1000101 K
b1000101 c
b1000100 j
b1000100 l
b1 o
b1000101 a
1/
#706000
b1010101010101010101010101010101 7
b1010101010101010101010101010101 @
b10100 5
b10100 >
#710000
0/
#715000
b1000110 E
b1000110 g
b1000110 K
b1000110 c
b1000110000000000100010101000101 -
b1000110000000000100010101000101 F
b1000110000000000100010101000101 e
b1000110000000000100010101000101 p
b10 i
b1000110 a
b1000101 j
b1000101 l
b10 o
1/
#720000
0/
#725000
b1000111010001110000000001000110 -
b1000111010001110000000001000110 F
b1000111010001110000000001000110 e
b1000111010001110000000001000110 p
b11 i
b1000111 E
b1000111 g
b1000111 K
b1000111 c
b1000110 j
b1000110 l
b11 o
b1000111 a
1/
#726000
16
#730000
0/
#735000
b1001000 E
b1001000 g
b1001000 K
b1001000 c
0#
0$
0q
b10001110100011100000000 -
b10001110100011100000000 F
b10001110100011100000000 e
b10001110100011100000000 p
1h
b0 i
b1001000 a
b1 `
b101 ^
b1000111 j
b1000111 l
b0 o
1/
#736000
06
#740000
0/
#745000
1$
1q
b10010000100100000000000 -
b10010000100100000000000 F
b10010000100100000000000 e
b10010000100100000000000 p
0h
b1 i
b1001001 E
b1001001 g
b1001001 K
b1001001 c
b1001000 j
b1001000 l
b1 o
b1001001 a
1/
#750000
0/
#755000
b1001010 E
b1001010 g
b1001010 K
b1001010 c
b1001010000000000100100101001001 -
b1001010000000000100100101001001 F
b1001010000000000100100101001001 e
b1001010000000000100100101001001 p
b10 i
b1001010 a
b1001001 j
b1001001 l
b10 o
1/
#756000
18
#760000
0/
#765000
b1001011010010110000000001001010 -
b1001011010010110000000001001010 F
b1001011010010110000000001001010 e
b1001011010010110000000001001010 p
b11 i
0"
b1001011 E
b1001011 g
b1001011 K
b1001011 c
b1001010 j
b1001010 l
b11 o
b100 `
b1010101010101010101010101010101 _
b1001011 a
1/
#766000
08
#770000
0/
#775000
b1001100 E
b1001100 g
b1001100 K
b1001100 c
0$
0q
b10010110100101100000000 -
b10010110100101100000000 F
b10010110100101100000000 e
b10010110100101100000000 p
1h
b0 i
b1001100 a
1&
b101 `
b1001011 j
b1001011 l
b0 o
1/
#780000
0/
#785000
1$
1q
b10011000100110000000000 -
b10011000100110000000000 F
b10011000100110000000000 e
b10011000100110000000000 p
0h
b1 i
b1001101 E
b1001101 g
b1001101 K
b1001101 c
b1001100 j
b1001100 l
b1 o
b1001101 a
1/
#786000
13
#790000
0/
#795000
b1001110 E
b1001110 g
b1001110 K
b1001110 c
1#
1"
b1001110000000000100110101001101 -
b1001110000000000100110101001101 F
b1001110000000000100110101001101 e
b1001110000000000100110101001101 p
b10 i
b1001110 a
0&
b0 `
b1001101 j
b1001101 l
b10 o
1/
#796000
b110 9
03
#800000
0/
#805000
b1001111010011110000000001001110 -
b1001111010011110000000001001110 F
b1001111010011110000000001001110 e
b1001111010011110000000001001110 p
b11 i
b1001111 E
b1001111 g
b1001111 K
b1001111 c
b1001110 j
b1001110 l
b11 o
b1001111 a
1/
#810000
0/
#815000
b1010000 E
b1010000 g
b1010000 K
b1010000 c
0$
0q
b10011110100111100000000 -
b10011110100111100000000 F
b10011110100111100000000 e
b10011110100111100000000 p
1h
b0 i
b1010000 a
b1001111 j
b1001111 l
b0 o
1/
#820000
0/
#825000
1$
1q
b10100000101000000000000 -
b10100000101000000000000 F
b10100000101000000000000 e
b10100000101000000000000 p
0h
b1 i
b1010001 E
b1010001 g
b1010001 K
b1010001 c
b1010000 j
b1010000 l
b1 o
b1010001 a
1/
#830000
0/
#835000
b1010010 E
b1010010 g
b1010010 K
b1010010 c
b1010010000000000101000101010001 -
b1010010000000000101000101010001 F
b1010010000000000101000101010001 e
b1010010000000000101000101010001 p
b10 i
b1010010 a
b1010001 j
b1010001 l
b10 o
1/
#836000
b1100110011001100110011001100110 7
b1100110011001100110011001100110 @
b11000 5
b11000 >
#840000
0/
#845000
b1010011010100110000000001010010 -
b1010011010100110000000001010010 F
b1010011010100110000000001010010 e
b1010011010100110000000001010010 p
b11 i
b1010011 E
b1010011 g
b1010011 K
b1010011 c
b1010010 j
b1010010 l
b11 o
b1010011 a
1/
#850000
0/
#855000
b1010100 E
b1010100 g
b1010100 K
b1010100 c
0$
0q
b10100110101001100000000 -
b10100110101001100000000 F
b10100110101001100000000 e
b10100110101001100000000 p
1h
b0 i
b1010100 a
b1010011 j
b1010011 l
b0 o
1/
#856000
16
#860000
0/
#865000
1$
1q
b10101000101010000000000 -
b10101000101010000000000 F
b10101000101010000000000 e
b10101000101010000000000 p
0h
b1 i
0#
b1010101 E
b1010101 g
b1010101 K
b1010101 c
b1010100 j
b1010100 l
b1 o
b1 `
b110 ^
b1010101 a
1/
#866000
06
#870000
0/
#875000
b1010110 E
b1010110 g
b1010110 K
b1010110 c
b1010110000000000101010101010101 -
b1010110000000000101010101010101 F
b1010110000000000101010101010101 e
b1010110000000000101010101010101 p
b10 i
b1010110 a
b1010101 j
b1010101 l
b10 o
1/
#880000
0/
#885000
b1010111010101110000000001010110 -
b1010111010101110000000001010110 F
b1010111010101110000000001010110 e
b1010111010101110000000001010110 p
b11 i
b1010111 E
b1010111 g
b1010111 K
b1010111 c
b1010110 j
b1010110 l
b11 o
b1010111 a
1/
#886000
18
#890000
0/
#895000
b1011000 E
b1011000 g
b1011000 K
b1011000 c
0"
0$
0q
b10101110101011100000000 -
b10101110101011100000000 F
b10101110101011100000000 e
b10101110101011100000000 p
1h
b0 i
b1011000 a
b100 `
b1100110011001100110011001100110 _
b1010111 j
b1010111 l
b0 o
1/
#896000
08
#900000
0/
#905000
1$
1q
b10110000101100000000000 -
b10110000101100000000000 F
b10110000101100000000000 e
b10110000101100000000000 p
0h
b1 i
b1011001 E
b1011001 g
b1011001 K
b1011001 c
b1011000 j
b1011000 l
b1 o
1&
b101 `
b1011001 a
1/
#910000
0/
#915000
b1011010 E
b1011010 g
b1011010 K
b1011010 c
b1011010000000000101100101011001 -
b1011010000000000101100101011001 F
b1011010000000000101100101011001 e
b1011010000000000101100101011001 p
b10 i
b1011010 a
b1011001 j
b1011001 l
b10 o
1/
#916000
13
#920000
0/
#925000
b1011011010110110000000001011010 -
b1011011010110110000000001011010 F
b1011011010110110000000001011010 e
b1011011010110110000000001011010 p
b11 i
1#
1"
b1011011 E
b1011011 g
b1011011 K
b1011011 c
b1011010 j
b1011010 l
b11 o
0&
b0 `
b1011011 a
1/
#926000
b111 9
03
#930000
0/
#935000
b1011100 E
b1011100 g
b1011100 K
b1011100 c
0$
0q
b10110110101101100000000 -
b10110110101101100000000 F
b10110110101101100000000 e
b10110110101101100000000 p
1h
b0 i
b1011100 a
b1011011 j
b1011011 l
b0 o
1/
#940000
0/
#945000
1$
1q
b10111000101110000000000 -
b10111000101110000000000 F
b10111000101110000000000 e
b10111000101110000000000 p
0h
b1 i
b1011101 E
b1011101 g
b1011101 K
b1011101 c
b1011100 j
b1011100 l
b1 o
b1011101 a
1/
#950000
0/
#955000
b1011110 E
b1011110 g
b1011110 K
b1011110 c
b1011110000000000101110101011101 -
b1011110000000000101110101011101 F
b1011110000000000101110101011101 e
b1011110000000000101110101011101 p
b10 i
b1011110 a
b1011101 j
b1011101 l
b10 o
1/
#960000
0/
#965000
b1011111010111110000000001011110 -
b1011111010111110000000001011110 F
b1011111010111110000000001011110 e
b1011111010111110000000001011110 p
b11 i
b1011111 E
b1011111 g
b1011111 K
b1011111 c
b1011110 j
b1011110 l
b11 o
b1011111 a
1/
#966000
b1110111011101110111011101110111 7
b1110111011101110111011101110111 @
b11100 5
b11100 >
#970000
0/
#975000
b1100000 E
b1100000 g
b1100000 K
b1100000 c
0$
0q
b10111110101111100000000 -
b10111110101111100000000 F
b10111110101111100000000 e
b10111110101111100000000 p
1h
b0 i
b1100000 a
b1011111 j
b1011111 l
b0 o
1/
#980000
0/
#985000
1$
1q
b11000000110000000000000 -
b11000000110000000000000 F
b11000000110000000000000 e
b11000000110000000000000 p
0h
b1 i
b1100001 E
b1100001 g
b1100001 K
b1100001 c
b1100000 j
b1100000 l
b1 o
b1100001 a
1/
#986000
16
#990000
0/
